%YAML 1.1
%TAG !u! tag:unity3d.com,2011:
--- !u!1 &3344568644173286835
GameObject:
  m_ObjectHideFlags: 0
  m_CorrespondingSourceObject: {fileID: 0}
  m_PrefabInstance: {fileID: 0}
  m_PrefabAsset: {fileID: 0}
  serializedVersion: 6
  m_Component:
  - component: {fileID: 3344568644173286834}
  - component: {fileID: 3344568644173286833}
  m_Layer: 0
  m_Name: Knotty Canine (VRCFury)
  m_TagString: Untagged
  m_Icon: {fileID: 0}
  m_NavMeshLayer: 0
  m_StaticEditorFlags: 0
  m_IsActive: 1
--- !u!4 &3344568644173286834
Transform:
  m_ObjectHideFlags: 0
  m_CorrespondingSourceObject: {fileID: 0}
  m_PrefabInstance: {fileID: 0}
  m_PrefabAsset: {fileID: 0}
  m_GameObject: {fileID: 3344568644173286835}
  m_LocalRotation: {x: 0, y: 0, z: 0, w: 1}
  m_LocalPosition: {x: 0, y: 0, z: 0}
  m_LocalScale: {x: 1, y: 1, z: 1}
  m_Children:
  - {fileID: 6571734130180216472}
  m_Father: {fileID: 0}
  m_RootOrder: 0
  m_LocalEulerAnglesHint: {x: 0, y: 0, z: 0}
--- !u!114 &3344568644173286833
MonoBehaviour:
  m_ObjectHideFlags: 0
  m_CorrespondingSourceObject: {fileID: 0}
  m_PrefabInstance: {fileID: 0}
  m_PrefabAsset: {fileID: 0}
  m_GameObject: {fileID: 3344568644173286835}
  m_Enabled: 1
  m_EditorHideFlags: 0
  m_Script: {fileID: 11500000, guid: d9e94e501a2d4c95bff3d5601013d923, type: 3}
  m_Name: 
  m_EditorClassIdentifier: 
  vrcfSerVersion: 7
  config:
    features:
    - id: 0
    - id: 1
  somethingIsBroken: 0
  references:
    version: 1
    00000000:
      type: {class: FullController, ns: VF.Model.Feature, asm: VRCFury}
      data:
        version: 2
        controllers:
        - controller: {fileID: 9100000, guid: d7d4fa511891a7449bf6b1c73b0548c5, type: 2}
          type: 5
          ResetMePlease: 0
        menus:
        - menu: {fileID: 11400000, guid: b8208fdd46918ee4388e3937a6d63c1e, type: 2}
          prefix: Zawoo
          ResetMePlease: 0
        prms:
        - parameters: {fileID: 11400000, guid: 7aa23cf790624234aa28b78624eb8df9, type: 2}
          ResetMePlease: 0
        globalParams: []
        removePrefixes: []
        addPrefix: 
        allNonsyncedAreGlobal: 0
        ignoreSaved: 1
        toggleParam: caninePeenToggle
        useSecurityForToggle: 1
        rootObjOverride: {fileID: 7889783702869647999}
        rootBindingsApplyToAvatar: 0
        controller: {fileID: 0}
        menu: {fileID: 0}
        parameters: {fileID: 0}
        submenu: 
    00000001:
      type: {class: ObjectState, ns: VF.Model.Feature, asm: VRCFury}
      data:
        version: 0
        states:
        - obj: {fileID: 3344568644173286835}
          action: 1
          ResetMePlease: 0
--- !u!114 &1498230397312983678
MonoBehaviour:
  m_ObjectHideFlags: 0
  m_CorrespondingSourceObject: {fileID: 0}
  m_PrefabInstance: {fileID: 0}
  m_PrefabAsset: {fileID: 0}
  m_GameObject: {fileID: 8138877281814717452}
  m_Enabled: 1
  m_EditorHideFlags: 0
  m_Script: {fileID: 11500000, guid: 2d4cd252f8c146639507ecd55bc2b48a, type: 3}
  m_Name: 
  m_EditorClassIdentifier: 
  vrcfSerVersion: 7
  length: 0
  radius: 0
  name: 
  unitsInMeters: 0
  configureTps: 0
  version: 1
--- !u!1001 &3344568645372403570
PrefabInstance:
  m_ObjectHideFlags: 0
  serializedVersion: 2
  m_Modification:
    m_TransformParent: {fileID: 3344568644173286834}
    m_Modifications:
    - target: {fileID: 4833610413082082573, guid: e46d7cde4bbf2ef4c86271fe6d19728d,
        type: 3}
      propertyPath: m_Name
      value: prefab_knottyCaninePeen
      objectReference: {fileID: 0}
    - target: {fileID: 8455849325118294506, guid: e46d7cde4bbf2ef4c86271fe6d19728d,
        type: 3}
      propertyPath: m_RootOrder
      value: 0
      objectReference: {fileID: 0}
    - target: {fileID: 8455849325118294506, guid: e46d7cde4bbf2ef4c86271fe6d19728d,
        type: 3}
      propertyPath: m_LocalPosition.x
      value: 0
      objectReference: {fileID: 0}
    - target: {fileID: 8455849325118294506, guid: e46d7cde4bbf2ef4c86271fe6d19728d,
        type: 3}
      propertyPath: m_LocalPosition.y
      value: -0.0216
      objectReference: {fileID: 0}
    - target: {fileID: 8455849325118294506, guid: e46d7cde4bbf2ef4c86271fe6d19728d,
        type: 3}
      propertyPath: m_LocalPosition.z
      value: 0.028
      objectReference: {fileID: 0}
    - target: {fileID: 8455849325118294506, guid: e46d7cde4bbf2ef4c86271fe6d19728d,
        type: 3}
      propertyPath: m_LocalRotation.w
      value: 1
      objectReference: {fileID: 0}
    - target: {fileID: 8455849325118294506, guid: e46d7cde4bbf2ef4c86271fe6d19728d,
        type: 3}
      propertyPath: m_LocalRotation.x
      value: -0
      objectReference: {fileID: 0}
    - target: {fileID: 8455849325118294506, guid: e46d7cde4bbf2ef4c86271fe6d19728d,
        type: 3}
      propertyPath: m_LocalRotation.y
      value: -0
      objectReference: {fileID: 0}
    - target: {fileID: 8455849325118294506, guid: e46d7cde4bbf2ef4c86271fe6d19728d,
        type: 3}
      propertyPath: m_LocalRotation.z
      value: -0
      objectReference: {fileID: 0}
    - target: {fileID: 8455849325118294506, guid: e46d7cde4bbf2ef4c86271fe6d19728d,
        type: 3}
      propertyPath: m_LocalEulerAnglesHint.x
      value: 0
      objectReference: {fileID: 0}
    - target: {fileID: 8455849325118294506, guid: e46d7cde4bbf2ef4c86271fe6d19728d,
        type: 3}
      propertyPath: m_LocalEulerAnglesHint.y
      value: 0
      objectReference: {fileID: 0}
    - target: {fileID: 8455849325118294506, guid: e46d7cde4bbf2ef4c86271fe6d19728d,
        type: 3}
      propertyPath: m_LocalEulerAnglesHint.z
      value: 0
      objectReference: {fileID: 0}
    m_RemovedComponents:
    - {fileID: 6816570435909755593, guid: e46d7cde4bbf2ef4c86271fe6d19728d, type: 3}
    - {fileID: 631084105439565901, guid: e46d7cde4bbf2ef4c86271fe6d19728d, type: 3}
    - {fileID: 6816570436923751281, guid: e46d7cde4bbf2ef4c86271fe6d19728d, type: 3}
  m_SourcePrefab: {fileID: 100100000, guid: e46d7cde4bbf2ef4c86271fe6d19728d, type: 3}
--- !u!1 &7889783702869647999 stripped
GameObject:
  m_CorrespondingSourceObject: {fileID: 4833610413082082573, guid: e46d7cde4bbf2ef4c86271fe6d19728d,
    type: 3}
  m_PrefabInstance: {fileID: 3344568645372403570}
  m_PrefabAsset: {fileID: 0}
--- !u!4 &6571734130180216472 stripped
Transform:
  m_CorrespondingSourceObject: {fileID: 8455849325118294506, guid: e46d7cde4bbf2ef4c86271fe6d19728d,
    type: 3}
  m_PrefabInstance: {fileID: 3344568645372403570}
  m_PrefabAsset: {fileID: 0}
--- !u!1 &8138877281814717452 stripped
GameObject:
  m_CorrespondingSourceObject: {fileID: 6816570436923751294, guid: e46d7cde4bbf2ef4c86271fe6d19728d,
    type: 3}
  m_PrefabInstance: {fileID: 3344568645372403570}
  m_PrefabAsset: {fileID: 0}
